/* Атрибуты */
type="text/javascript" // Указывает браузеру какой скриптовый язык мы встраиваем.
async

/* Команды */
document.write()  // Текст оповещения
alert()           // Окно оповещения
confirm()         // Окно подтверждения
prompt(,)         // Окно запроса

/* Условие */
if (условие) {}        // Выполняет значение true
else if (условие2) {}  // Выполняет значение false-true
else {}                // Выполняет значение false
switch (x) {    // Выполняет значение при сравнение
  case j:       // Блок сравнения при true
  break;        // Закрывающий блок
  default: }    // Блок сравнения при false

/* Циклы */
for (определения;условие;изменения) {команды} // Цикл исполняющий блок команд
while (условие) {команды;изменения}           // Цикл исполняющий блок команд
do {команды} while (условие)                  // Цикл (+1) исполняющий блок команд
  if (условие) {break;}                       // Досрочный конец выполнение цикла
  if (условие) {continue;}                    // Досрочный обрыв выполнения цикла
for (переменная in объект_или_массив) {}      // Цикл исполняющий в массиве

/* Контейнеры */
function имя(пер1, пер2){код} // Создание блока, функция
  window.имя_переменной       // Обращение к глобальной переменной (не локал)
  return                      // Возвращает из функций значения

var переменная=               // Создание переменной, переменная
let
const

this.

/* Операторы */
delete     // Удаляет значение (без var)
null       // Удаляет значение (var)
undefined  // Удаляет значение (var)
&&         // И
||         // Или
!          // Не
==         // Сравнение на равенство
!=         // Сравнение на различие

/* Встроенные функции */
isFinite() // Проверить является ли значение числом

/* Массив */
var x=new Array();         // Запишем в массив элементы
x[0]='1 элемент массива';  // Обьявить элемент
x[1]='2 элемент массива';  // (массив[индекс])
x.reverse()                // Обратный порядок
x.length                   // Количество элементов
x3 = x2.concat(x1)         // Создание массива из масивов
x.sort()                   // Сортировать элементы
x2=x1.pop()                // Удаляет последний элемент
x2=x1.slice(0,2)           // Вырезает и создает из элементов массив

/* Текст */
x=new String("Текст");       // Контейнер текстовой информации
x.length                     // Длина контейнера
x.toUpperCase()              // Перевод в верхний регистр
x.toLowerCase()              // Перевод в нижний регистр
x.concat(y,z)                // Объединить две и более строки
x.replace('текс1','текс2')   // Замена текста

/* Дата */
x=new Date();                 // Время (год, месяц, день, час, минута, секунда, миллисекунда);
x.getDate()                   // Извлекает день
x.getFullYear()               // Извлекает год
x.setFullYear(1990,04,12);    // Изменяет время

/* Математика */
Math.round(25.34)              // Округлить
Math.random()                  // Рандом от 0 до 1
Math.round(Math.random()*100)  // Рандом от 0 до 100
Math.pow(3,3)                  // Возводить в степень
Math.max(10,68,35)             // Выбрать мак. число
Math.min(10,68,35)             // Выбрать мин. Число

/* Объект */
1) var x=new Object();          // Cозд. объект способ 1
  x.name='Димитрий';
  x['age']=25;
2) var x={                      // Cозд. объект способ 2
   name:'Димитрий',
   age:25}
3) function Human(name,age) {   // Шаблон конструктора
   this.name=name;
   this.age=age; }
4) prototype                    // Добавляет метод и свойство конструктору конструктор.prototype.свойство(метод)=значение(функция);
5) ||                           // Равняется

/* Ошибки */
try  {}                // Проверяется на наличие ошибок
catch(ошибка) {}       // Будет выполнен если в блоке try были найдены ошибки
finally {}             // Будет выполнен независимо
throw текст_ошибки;    // Собственные пояснения к возможным ошибкам

/* Время */
setTimeout(код,промежуток_времени)   // Позволяет выполнить код один раз.
setInterval(код,промежуток_времени)  // Позволяет выполнять код бесконечное количество раз.
clearTimeout(идентификатор_вызова)   // Стоп
clearInterval(идентификатор_вызова)  // Стоп

/* Специальные операторы */
delete     // Удаляет переменную
in         // Сверяет значение у элемента
instanceof // Сверяет тип обьекта
typeof     // Возвращает тип у элемента
onSubmit   // Проверка форм

var i;
for (i in item) {
   document.write(i+ " элемент массива: " + item[i] + "<br />");
}

/* window */
window.length                  // узнать сколько фреймов
alert('Это окно оповещения');  // Выведем окно оповещения
nw=open();                     // Откроем новое пустое окно
nw.document.write('текс');     // Выведем сообщение в новое окно
function cl(){nw.close()}      // close() Вы можете закрыть окно.


/* Создадим функцию pr() печатающую содержимое данного окна
после нажатия на кнопку */
function pr(){
   print();
}
</script>

<form>
<input type='button' value='Напечатать содержимое данной страницы' onclick='pr()' />
</form>

Объект navigator.
//Выведем информацию о Вашем браузере на страницу
document.write('Информация о Вашем браузере: '+navigator.userAgent);
//Проверим может ли Ваш браузер принимать cookie
if (navigator.cookieEnabled)
   document.write('Ваш браузер может принимать cookie!');
else
   document.write('Ваш браузер не может принимать cookie.');
//Узнаем версию Вашего браузера и выведем ее на экран
document.write(navigator.appVersion);
//Узнаем название Вашего браузера и выведем его на страницу
document.write(navigator.appName + '<br />');
//Узнаем кодовое название браузера и выведем его на страницу
document.write(navigator.appCodeName +'<br />');
//Узнаем платформу, под которую скомпилирован Ваш браузер и выведем ее на страницу
document.write(navigator.platform);
//Проверим включена ли в Вашем браузере поддержка Java
document.write(navigator.javaEnabled());
Объект Screen. //Узнаем разрешение Вашего экрана и выведем его на на страницу
document.write('Разрешение экрана: <b>'+screen.width+'X'+
screen.height+'</b>'); //Узнаем глубину цвета Вашего экрана и выведем ее на страницу
document.write('Глубина цвета: ' + screen.colorDepth);
Объект History //Выведем количество посещенных в данном окне браузера URL
document.write(history.length);
function bc2() {
   window.history.go(-2);
}посещенных URL с помощью метода go(смещение).
Объект Location
Свойство href хранит URL текущего документа целиком.
С помощью свойства pathname Вы можете узнать путь к загруженному документу.
Свойство host содержит имя домена загруженного документа.
С помощью метода assign() Вы можете загрузить новый документ в данное окно браузера (изменить текущий URL на желаемый).

//После нажатия на кнопку будет загружена главная страница нашего сайта
function newdoc (){
   location.assign('http://www.wisdomweb.ru');
}
<input type='button' value='Загрузить главную страницу' onclick='newdoc()' />

Следующим шагом для Вас может стать изучение HTML DOM, jQuery или AJAX.
