<svg width="315" height="285" viewBox="0 0 315 285" fill="none" xmlns="http://www.w3.org/2000/svg">
<path d="M104.983 89.983C165.069 89.983 209.966 66.23 209.966 44.991C209.966 23.754 165.068 0 104.983 0C44.898 0 0.000999451 23.754 0.000999451 44.991C0.000999451 66.23 44.897 89.983 104.983 89.983Z" fill="black"/>
<path d="M104.983 269.957C113.753 269.957 122.194 269.447 130.223 268.518C123.455 259.82 117.858 250.168 113.665 239.802C110.784 239.899 107.893 239.966 104.982 239.966C70.649 239.966 38.135 233.163 13.432 220.811C8.568 218.379 4.092 215.766 0.000999451 213V224.966C0.000999451 246.203 44.897 269.957 104.983 269.957Z" fill="black"/>
<path d="M104.983 209.966C105.291 209.966 105.594 209.961 105.901 209.96C105.286 205.044 104.965 200.037 104.965 194.957C104.965 189.879 105.285 184.875 105.901 179.963C105.594 179.963 105.29 179.974 104.983 179.974C70.65 179.974 38.137 173.171 13.433 160.819C8.568 158.387 4.091 155.774 0 153.009V164.974C0.001 186.212 44.897 209.966 104.983 209.966Z" fill="black"/>
<path d="M104.983 149.973C107.959 149.973 110.895 149.913 113.794 149.799C118.45 138.376 124.813 127.825 132.571 118.468C123.589 119.458 114.358 119.983 104.983 119.983C70.65 119.983 38.137 113.18 13.433 100.828C8.568 98.395 4.091 95.783 0 93.017V104.983C0.001 126.221 44.897 149.973 104.983 149.973Z" fill="black"/>
<path d="M149.983 145.24C143.493 154.997 138.856 166.086 136.575 178.002C135.522 183.495 134.966 189.162 134.966 194.957C134.966 199.314 135.284 203.598 135.885 207.791C137.362 218.092 140.589 227.832 145.255 236.705C150.151 246.016 156.628 254.371 164.331 261.406C180.339 276.027 201.629 284.957 224.966 284.957C274.592 284.957 314.966 244.583 314.966 194.957C314.966 145.33 274.592 104.957 224.966 104.957C219.837 104.957 214.808 105.395 209.91 106.223C184.962 110.442 163.474 124.961 149.983 145.24Z" fill="black"/>
</svg>
